{
    "surveys": [    
        {
            "id":1,
            "title":"ACU Students",
            "purpose":"Learn about ACU student body.",
            "author":1
        },
        {
            "id":2,
            "title":"ACU Faculty",
            "purpose":"Learn about ACU faculty.",
            "author":1 
        },
        {
            "id":3,
            "title":"ACU Alumni",
            "purpose":"Learn about ACU alumni.",
            "author":1
        },
 {"id":4,"title":"ACU Sports Fans","purpose":"Find out who the die hard fans are.","author":1},
 {"id":5,"title":"Tamaras Bday","purpose":"Help plan Tamaras bday party.","author":1},
 {"id":6,"title":"Should You Be Fired?","purpose":"Find out if person should be fired.","author":2},
 {"id":7,"title":"My Students","purpose":"Find out about my students and what classes they take.","author":2},
 {"id":8,"title":"Purple","purpose":"Purple is great.","author":2},
 {"id":9,"title":"Blee","purpose":"To blee is to blah.","author":2},
 {"id":10,"title":"My Presidency","purpose":"Find out who liked me.","author":3},
 {"id":11,"title":"The New President","purpose":"Find out what people think about the new president.","author":3},
 {"id":12,"title":"Golf Courses","purpose":"Find out which golf course are the best.","author":3},
 {"id":13,"title":"Should I Return to The Packers?","purpose":"Ask the public what I should do with my career.","author":4},
 {"id":14,"title":"Who Should We Resign?","purpose":"Ask my teammates who they would like to see brought back.","author":4},
 {"id":15,"title":"Fan Survey","purpose":"Learn about my fans.","author":4}
    ]
}